{
  "entityout": {
    "id": "a6fa23b7",
    "ispreferedreceiver": true,
    "status": {
      "id": "ACTIVE",
      "description": "The membership is active and the user can perform the operations available."
    },
    "membershipdate": "2020-02-03T16:41:41.090Z",
    "lastupdatedate": "2020-02-06T16:41:41.090Z",
    "paymentmethods": [
      {
        "paymentmethod": {
          "id": "MOBILE",
          "alias": {
            "id": "9798798797",
            "aliastype": {
              "id": "MOBILE",
              "description": "Mobile Phone"
            },
            "value": "945678745"
          },
          "relatedcontracts": [
            {
              "relatedcontract": {
                "contractid": "4145368739092930",
                "number": "01821642030201530412",
                "numbertype": {
                  "id": "PAN",
                  "description": "Primary Account Number"
                },
                "producttype": {
                  "id": "ACCOUNTS",
                  "description": "Productos cuentas"
                },
                "relationtype": {
                  "id": "PAYMENT_ACCCOUNT",
                  "name": "Cuenta de pago"
                }
              }
            }
          ],
          "isavailable": true,
          "creationdate":"2020-02-03T16:41:41.090Z",
          "lastupdatedate":"2020-02-03T16:41:41.090Z"
        }

      }
    ]
  }
}