{
  "entityout": {
    "id": "a6fa23b7",
    "ispreferedreceiver": true,
    "status": {
      "id": "ACTIVE",
      "description": "The membership is active and the user can perform the operations available."
    },
    "membershipdate": "2020-02-03T16:41:41.090Z",
    "lastupdatedate": "2020-02-06T16:41:41.090Z"
  }
}